Spatial Data Analysis with R BayGeo, Spring 2021
…
Because the rows represent responses, and the SoQL language doesn’t have a function like count_distinct(), we’ll have to count up the records in R.

4. In R, we can now count the number of incidents per neighborhood:

## Compute the number of incidents per neighborhood
nb_num_calls <- ems_df %>% 
  dplyr::group_by(nhood) %>% 
  dplyr::summarise(num_calls = n())
nb_num_calls

## # A tibble: 41 x 2
##    nhood                          num_calls
##  * <chr>                              <int>
##  1 Bayview Hunters Point                136
##  2 Bernal Heights                        38
##  3 Castro/Upper Market                   79
##  4 Chinatown                             55
##  5 Excelsior                             52
##  6 Financial District/South Beach       253
##  7 Glen Park                             21
##  8 Golden Gate Park                      30
##  9 Haight Ashbury                        38
## 10 Hayes Valley                          65
## # ... with 31 more rows
…
